ID,Type,Facilities,Category,Remark
AEL_T1Arrival,POI,T1 Airport Express Arrival,AEL,
AEL_T2Arrival,POI,T2 Airport Express Arrival,AEL,
CNAC_VIPLounge,POI,CNAC VIP Lounge,Airline Lounges,
CXLounge_TheArrival,POI,Cathay Pacific - The Arrival,Airline Lounges,
CXLounge_TheBridge,POI,Cathay Pacific - The Bridge,Airline Lounges,
CXLounge_TheCabin,POI,Cathay Pacific - The Cabin,Airline Lounges,
CXLounge_ThePier_FirstClass,POI,Cathay Pacific - The Pier (First Class),Airline Lounges,
CXLounge_ThePier_BusinessClass,POI,Cathay Pacific - The Pier (Business Class),Airline Lounges,
CXLounge_TheWing,POI,Cathay Pacific - The Wing,Airline Lounges,
EmiratesLounge,POI,Emirates Lounge,Airline Lounges,
HKAirlineLounge_ClubBauhinia,POI,Club Bauhinia - Hong Kong Airlines Lounge,Airline Lounges,
RoyalOrchidLounge,POI,Royal Orchid Lounge,Airline Lounges,
SilverKrisLounge,POI,SilverKris Lounge,Airline Lounges,
SkyTeamExclusiveLonge,POI,SkyTeam Exclusive Lounge,Airline Lounges,
TheQantasHongKongLounge,POI,The Qantas Hong Kong Lounge,Airline Lounges,
UnitedClub,POI,United Club,Airline Lounges,
G16Lounge,POI,G16 Lounge,Airline Lounges,
arrivalHall_A,POI,Arrival Hall A,Arrival Hall,
arrivalHall_B,POI,Arrival Hall B,Arrival Hall,
baggage_01,POI,Baggage Reclaim Belt 1,Baggage Reclaim,
baggage_02,POI,Baggage Reclaim Belt 2,Baggage Reclaim,
baggage_03,POI,Baggage Reclaim Belt 3,Baggage Reclaim,
baggage_04,POI,Baggage Reclaim Belt 4,Baggage Reclaim,
baggage_05,POI,Baggage Reclaim Belt 5,Baggage Reclaim,
baggage_06,POI,Baggage Reclaim Belt 6,Baggage Reclaim,
baggage_07,POI,Baggage Reclaim Belt 7,Baggage Reclaim,
baggage_08,POI,Baggage Reclaim Belt 8,Baggage Reclaim,
baggage_09,POI,Baggage Reclaim Belt 9,Baggage Reclaim,
baggage_10,POI,Baggage Reclaim Belt 10,Baggage Reclaim,
baggage_11,POI,Baggage Reclaim Belt 11,Baggage Reclaim,
baggage_12,POI,Baggage Reclaim Belt 12,Baggage Reclaim,
baggage_13,POI,Baggage Reclaim Belt 13,Baggage Reclaim,
baggage_14,POI,Baggage Reclaim Belt 14,Baggage Reclaim,
gate_001,POI,Gate 1,Boarding Gate,
gate_002,POI,Gate 2,Boarding Gate,
gate_003,POI,Gate 3,Boarding Gate,
gate_004,POI,Gate 4,Boarding Gate,
gate_015,POI,Gate 15,Boarding Gate,
gate_016,POI,Gate 16,Boarding Gate,
gate_017,POI,Gate 17,Boarding Gate,
gate_018,POI,Gate 18,Boarding Gate,
gate_019,POI,Gate 19,Boarding Gate,
gate_020,POI,Gate 20,Boarding Gate,
gate_021,POI,Gate 21,Boarding Gate,
gate_022,POI,Gate 22,Boarding Gate,
gate_023,POI,Gate 23,Boarding Gate,
gate_024,POI,Gate 24,Boarding Gate,
gate_025,POI,Gate 25,Boarding Gate,
gate_026,POI,Gate 26,Boarding Gate,
gate_027,POI,Gate 27,Boarding Gate,
gate_028,POI,Gate 28,Boarding Gate,
gate_029,POI,Gate 29,Boarding Gate,
gate_030,POI,Gate 30,Boarding Gate,
gate_031,POI,Gate 31,Boarding Gate,
gate_032,POI,Gate 32,Boarding Gate,
gate_033,POI,Gate 33,Boarding Gate,
gate_034,POI,Gate 34,Boarding Gate,
gate_035,POI,Gate 35,Boarding Gate,
gate_036,POI,Gate 36,Boarding Gate,
gate_040,POI,Gate 40,Boarding Gate,
gate_041,POI,Gate 41,Boarding Gate,
gate_042,POI,Gate 42,Boarding Gate,
gate_043,POI,Gate 43,Boarding Gate,
gate_044,POI,Gate 44,Boarding Gate,
gate_045,POI,Gate 45,Boarding Gate,
gate_046,POI,Gate 46,Boarding Gate,
gate_047,POI,Gate 47,Boarding Gate,
gate_048,POI,Gate 48,Boarding Gate,
gate_049,POI,Gate 49,Boarding Gate,
gate_050,POI,Gate 50,Boarding Gate,
gate_060,POI,Gate 60,Boarding Gate,
gate_061,POI,Gate 61,Boarding Gate,
gate_062,POI,Gate 62,Boarding Gate,
gate_063,POI,Gate 63,Boarding Gate,
gate_064,POI,Gate 64,Boarding Gate,
gate_065,POI,Gate 65,Boarding Gate,
gate_066,POI,Gate 66,Boarding Gate,
gate_067,POI,Gate 67,Boarding Gate,
gate_068,POI,Gate 68,Boarding Gate,
gate_069,POI,Gate 69,Boarding Gate,
gate_070,POI,Gate 70,Boarding Gate,
gate_071,POI,Gate 71,Boarding Gate,
gate_201,POI,Gate 201,Boarding Gate,
gate_202,POI,Gate 202,Boarding Gate,
gate_203,POI,Gate 203,Boarding Gate,
gate_204,POI,Gate 204,Boarding Gate,
gate_205,POI,Gate 205,Boarding Gate,
gate_206,POI,Gate 206,Boarding Gate,
gate_207,POI,Gate 207,Boarding Gate,
gate_208,POI,Gate 208,Boarding Gate,
gate_209,POI,Gate 209,Boarding Gate,
gate_210,POI,Gate 210,Boarding Gate,
gate_211,POI,Gate 211,Boarding Gate,
gate_212,POI,Gate 212,Boarding Gate,
gate_213,POI,Gate 213,Boarding Gate,
gate_214,POI,Gate 214,Boarding Gate,
gate_215,POI,Gate 215,Boarding Gate,
gate_216,POI,Gate 216,Boarding Gate,
gate_217,POI,Gate 217,Boarding Gate,
gate_218,POI,Gate 218,Boarding Gate,
gate_219,POI,Gate 219,Boarding Gate,
gate_228,POI,Gate 228,Boarding Gate,
gate_229,POI,Gate 229,Boarding Gate,
gate_230,POI,Gate 230,Boarding Gate,
gate_501,POI,Gate 501,Boarding Gate,
gate_502,POI,Gate 502,Boarding Gate,
gate_503,POI,Gate 503,Boarding Gate,
gate_504,POI,Gate 504,Boarding Gate,
gate_505,POI,Gate 505,Boarding Gate,
gate_506,POI,Gate 506,Boarding Gate,
gate_507,POI,Gate 507,Boarding Gate,
gate_508,POI,Gate 508,Boarding Gate,
gate_509,POI,Gate 509,Boarding Gate,
gate_510,POI,Gate 510,Boarding Gate,
gate_511,POI,Gate 511,Boarding Gate,
gate_512,POI,Gate 512,Boarding Gate,
gate_513,POI,Gate 513,Boarding Gate,
gate_520,POI,Gate 520,Boarding Gate,
gate_521,POI,Gate 521,Boarding Gate,
gate_522,POI,Gate 522,Boarding Gate,
gate_523,POI,Gate 523,Boarding Gate,
gate_524,POI,Gate 524,Boarding Gate,
gate_525,POI,Gate 525,Boarding Gate,
busBay_10,POI,Bus,Bus,
busBay_11,POI,Bus,Bus,
busBay_20,POI,Bus,Bus,
busBay_21,POI,Bus,Bus,
busBay_22,POI,Bus,Bus,
busBay_23,POI,Bus,Bus,
busBay_24,POI,Bus,Bus,
busBay_25,POI,Bus,Bus,
busBay_26,POI,Bus,Bus,
busBay_27,POI,Bus,Bus,
busBay_28,POI,Bus,Bus,
busBay_29,POI,Bus,Bus,
busBay_30,POI,Bus,Bus,
busBay_31,POI,Bus,Bus,
busBay_32,POI,Bus,Bus,
busBay_33,POI,Bus,Bus,
busBay_34,POI,Bus,Bus,
busBay_35,POI,Bus,Bus,
busBay_36,POI,Bus,Bus,
busBay_40,POI,Bus,Bus,
busBay_41,POI,Bus,Bus,
busBay_42,POI,Bus,Bus,
busBay_43,POI,Bus,Bus,
busBay_44,POI,Bus,Bus,
BusBay_CheongTatRd,POI,Cheong Tat Road,Bus,
BusBay_T1_DepartureKerb,POI,Airport (Terminal One),Bus,
BusBay_T2_DepartureKerb,POI,Airport (Terminal Two),Bus,
BusBay_T1nT2CheongTatRd,POI,"Terminal 1 and Terminal 2, Cheong Tat Road",Bus,
carPark_1,POI,Carpark 1,Car Park,
carPark_2,POI,Carpark 2,Car Park,
carPark_3,POI,Carpark 3,Car Park,
carPark_4,POI,Carpark 4,Car Park,
checkIn_A,POI,Check-in Counter A,Check-in Aisle,
checkIn_B,POI,Check-in Counter B,Check-in Aisle,
checkIn_C,POI,Check-in Counter C,Check-in Aisle,
checkIn_D,POI,Check-in Counter D,Check-in Aisle,
checkIn_E,POI,Check-in Counter E,Check-in Aisle,
checkIn_F,POI,Check-in Counter F,Check-in Aisle,
checkIn_G,POI,Check-in Counter G,Check-in Aisle,
checkIn_H,POI,Check-in Counter H,Check-in Aisle,
checkIn_J,POI,Check-in Counter J,Check-in Aisle,
checkIn_K,POI,Check-in Counter K,Check-in Aisle,
checkIn_N,POI,Check-in Counter N,Check-in Aisle,
checkIn_P,POI,Check-in Counter P,Check-in Aisle,
checkIn_Q,POI,Check-in Counter Q,Check-in Aisle,
SkypierServiceCounter,POI,Ferries to Mainland / Macau,Ferries to Mainland / Macau,
PlazaPremiumLounge,POI,Plaza Premium Lounge,Pay-in Lounges,
PlazaPremiumLounge_Arrival,POI,Plaza Premium Lounge (Arrival Lounge),Pay-in Lounges,
PlazaPremiumLounge_East,POI,Plaza Premium Lounge (East),Pay-in Lounges,
PlazaPremiumLounge_West,POI,Plaza Premium Lounge (West),Pay-in Lounges,
SZ_Lounge,POI,SZ Lounge,Pay-in Lounges,
T1_DepartureKerb,POI,Terminal 1 - Departure Kerb,Point to Point,
T2_DepartureKerb,POI,Terminal 2 - Departure Kerb,Point to Point,
TICCounter,POI,Travel Industry Council,Tourist Information / Others,
CTSCounter,POI,China Travel Service (HK),Tourist Information / Others,
HKHA_B17,POI,Hong Kong Hotel Association,Tourist Information / Others,
HKHA_BufferHallA,POI,Hong Kong Hotel Association,Tourist Information / Others,
HKTBService_A,POI,HKTB Visitor Info Service,Tourist Information / Others,
HKTBService_B,POI,HKTB Visitor Info Service,Tourist Information / Others,
MGTOffice,POI,Macau Government Tourist Office,Tourist Information / Others,
SZ_Counter,POI,SZ Counter,Tourist Information / Others,
transferDesk_E1,POI,Transfer Desk,Transfer Desk,
transferDesk_E2,POI,Transfer Desk,Transfer Desk,
transferDesk_M1,POI,Transfer Desk,Transfer Desk,
transferDesk_W1,POI,Transfer Desk,Transfer Desk,
mainlandCoachesServiceCounter,POI,Transportation to Mainland,Transport to Mainland,
Cat_AirlineLounges,Category,,,
Cat_AirlineServicesDesk,Category,,,
Cat_AirportExpress,Category,,,
Cat_AirportHotel,Category,,,
Cat_LostAndFound,Category,,,
Cat_ArrivalHall,Category,,,
Cat_ATM,Category,,,
Cat_BaggageEnquiryDesk,Category,,,
Cat_BaggageReclaim,Category,,,
Cat_Bank,Category,,,
Cat_BatteryRechargeServices,Category,,,
Cat_Berth,Category,,,
Cat_BoardingGate,Category,,,
Cat_Bus,Category,,,
Cat_CarPark,Category,,,
Cat_CaringCorner,Category,,,
Cat_CheckIn,Category,,,
Cat_ChildrenPlayAreaAndTVLounges,Category,,,
Cat_ChinaVisa,Category,,,
Cat_CulturalDisplay,Category,,,
Cat_CustomerServicesCentres,Category,,,
Cat_Departures,Category,,,
Cat_DisableToilet,Category,,,
Cat_DrinkingFountain,Category,,,
Cat_ElectricVehicles,Category,,,
Cat_FacsimileServices,Category,,,
Cat_Ferry,Category,,,
Cat_FreeInternetService,Category,,,
Cat_HotDrinkingWater,Category,,,
Cat_LimousineLounge,Category,,,
Cat_BaggageStorage,Category,,,
Cat_MedicalCentre,Category,,,
Cat_MoneyExchange,Category,,,
Cat_NursingRoom,Category,,,
Cat_PayinLounge,Category,,,
Cat_PhotoKiosks,Category,,,
Cat_PoliceReportingCentres,Category,,,
Cat_PostBox,Category,,,
Cat_PostOffice,Category,,,
Cat_PrayerRoom,Category,,,
Cat_PrintingPhotocopyingAndScanningServices,Category,,,
Cat_PublicPhonesAndSIM,Category,,,
Cat_RelaxationCorner,Category,,,
Cat_residentsCoaches,Category,,,
Cat_RestingLounge,Category,,,
Cat_SmokingLounges,Category,,,
Cat_TaxRefundCounter,Category,,,
Cat_Taxi,Category,,,
Cat_Toilet,Category,,,
Cat_ToiletFemale,Category,,,
Cat_ToiletMale,Category,,,
Cat_HotelCoach,Category,,,
Cat_TouristInformation,Category,,,
Cat_TransferArea,Category,,,
Cat_TransferDesk,Category,,,
Cat_MainlandCoach,Category,,,
Cat_TVLounge,Category,,,