The target system is: Android - 18 - armv5te
The host system is: Darwin - 15.6.0 - x86_64
Determining if the C compiler works passed with the following output:
Change Dir: /Users/Yu/Documents/Development/Projects/gitlab/ShoppoMapSDK/PMPMapSDK/proj.android-studio/app/.externalNativeBuild/cmake/hkia_debug_release/armeabi/CMakeFiles/CMakeTmp

Run Build Command:"/Users/Yu/Library/Android/sdk/cmake/3.6.3155560/bin/ninja" "cmTC_f54b2"
[1/2] Building C object CMakeFiles/cmTC_f54b2.dir/testCCompiler.c.o
[2/2] Linking C executable cmTC_f54b2


Detecting C compiler ABI info compiled with the following output:
Change Dir: /Users/Yu/Documents/Development/Projects/gitlab/ShoppoMapSDK/PMPMapSDK/proj.android-studio/app/.externalNativeBuild/cmake/hkia_debug_release/armeabi/CMakeFiles/CMakeTmp

Run Build Command:"/Users/Yu/Library/Android/sdk/cmake/3.6.3155560/bin/ninja" "cmTC_d9c83"
[1/2] Building C object CMakeFiles/cmTC_d9c83.dir/CMakeCCompilerABI.c.o
[2/2] Linking C executable cmTC_d9c83
Android clang version 3.8.256229  (based on LLVM 3.8.256229)
Target: armv5te-none-linux-android
Thread model: posix
InstalledDir: /Users/Yu/Library/Android/sdk/ndk-bundle/toolchains/llvm/prebuilt/darwin-x86_64/bin
Found candidate GCC installation: /Users/Yu/Library/Android/sdk/ndk-bundle/toolchains/arm-linux-androideabi-4.9/prebuilt/darwin-x86_64/lib/gcc/arm-linux-androideabi/4.9.x
Selected GCC installation: /Users/Yu/Library/Android/sdk/ndk-bundle/toolchains/arm-linux-androideabi-4.9/prebuilt/darwin-x86_64/lib/gcc/arm-linux-androideabi/4.9.x
Candidate multilib: .;@m32
Selected multilib: .;@m32
 "/Users/Yu/Library/Android/sdk/ndk-bundle/toolchains/arm-linux-androideabi-4.9/prebuilt/darwin-x86_64/lib/gcc/arm-linux-androideabi/4.9.x/../../../../arm-linux-androideabi/bin/ld" --sysroot=/Users/Yu/Library/Android/sdk/ndk-bundle/platforms/android-18/arch-arm -pie -X --eh-frame-hdr -m armelf_linux_eabi -dynamic-linker /system/bin/linker -o cmTC_d9c83 /Users/Yu/Library/Android/sdk/ndk-bundle/platforms/android-18/arch-arm/usr/lib/../lib/crtbegin_dynamic.o -L/Users/Yu/Library/Android/sdk/ndk-bundle/toolchains/arm-linux-androideabi-4.9/prebuilt/darwin-x86_64/lib/gcc/arm-linux-androideabi/4.9.x -L/Users/Yu/Library/Android/sdk/ndk-bundle/toolchains/arm-linux-androideabi-4.9/prebuilt/darwin-x86_64/lib/gcc/arm-linux-androideabi/4.9.x/../../../../arm-linux-androideabi/lib/../lib -L/Users/Yu/Library/Android/sdk/ndk-bundle/platforms/android-18/arch-arm/usr/lib/../lib -L/Users/Yu/Library/Android/sdk/ndk-bundle/toolchains/arm-linux-androideabi-4.9/prebuilt/darwin-x86_64/lib/gcc/arm-linux-androideabi/4.9.x/../../../../arm-linux-androideabi/lib -L/Users/Yu/Library/Android/sdk/ndk-bundle/platforms/android-18/arch-arm/usr/lib --build-id --warn-shared-textrel --fatal-warnings --no-undefined -z noexecstack -z relro -z now --gc-sections -z nocopyreloc --build-id --warn-shared-textrel --fatal-warnings --no-undefined -z noexecstack -z relro -z now --gc-sections -z nocopyreloc CMakeFiles/cmTC_d9c83.dir/CMakeCCompilerABI.c.o -lgcc -ldl -lc -lgcc -ldl /Users/Yu/Library/Android/sdk/ndk-bundle/platforms/android-18/arch-arm/usr/lib/../lib/crtend_android.o


Parsed C implicit link information from above output:
  link line regex: [^( *|.*[/\])(arm-linux-androideabi-ld|([^/\]+-)?ld|collect2)[^/\]*( |$)]
  ignore line: [Change Dir: /Users/Yu/Documents/Development/Projects/gitlab/ShoppoMapSDK/PMPMapSDK/proj.android-studio/app/.externalNativeBuild/cmake/hkia_debug_release/armeabi/CMakeFiles/CMakeTmp]
  ignore line: []
  ignore line: [Run Build Command:"/Users/Yu/Library/Android/sdk/cmake/3.6.3155560/bin/ninja" "cmTC_d9c83"]
  ignore line: [[1/2] Building C object CMakeFiles/cmTC_d9c83.dir/CMakeCCompilerABI.c.o]
  ignore line: [[2/2] Linking C executable cmTC_d9c83]
  ignore line: [Android clang version 3.8.256229  (based on LLVM 3.8.256229)]
  ignore line: [Target: armv5te-none-linux-android]
  ignore line: [Thread model: posix]
  ignore line: [InstalledDir: /Users/Yu/Library/Android/sdk/ndk-bundle/toolchains/llvm/prebuilt/darwin-x86_64/bin]
  ignore line: [Found candidate GCC installation: /Users/Yu/Library/Android/sdk/ndk-bundle/toolchains/arm-linux-androideabi-4.9/prebuilt/darwin-x86_64/lib/gcc/arm-linux-androideabi/4.9.x]
  ignore line: [Selected GCC installation: /Users/Yu/Library/Android/sdk/ndk-bundle/toolchains/arm-linux-androideabi-4.9/prebuilt/darwin-x86_64/lib/gcc/arm-linux-androideabi/4.9.x]
  ignore line: [Candidate multilib: .]
  ignore line: [@m32]
  ignore line: [Selected multilib: .]
  ignore line: [@m32]
  link line: [ "/Users/Yu/Library/Android/sdk/ndk-bundle/toolchains/arm-linux-androideabi-4.9/prebuilt/darwin-x86_64/lib/gcc/arm-linux-androideabi/4.9.x/../../../../arm-linux-androideabi/bin/ld" --sysroot=/Users/Yu/Library/Android/sdk/ndk-bundle/platforms/android-18/arch-arm -pie -X --eh-frame-hdr -m armelf_linux_eabi -dynamic-linker /system/bin/linker -o cmTC_d9c83 /Users/Yu/Library/Android/sdk/ndk-bundle/platforms/android-18/arch-arm/usr/lib/../lib/crtbegin_dynamic.o -L/Users/Yu/Library/Android/sdk/ndk-bundle/toolchains/arm-linux-androideabi-4.9/prebuilt/darwin-x86_64/lib/gcc/arm-linux-androideabi/4.9.x -L/Users/Yu/Library/Android/sdk/ndk-bundle/toolchains/arm-linux-androideabi-4.9/prebuilt/darwin-x86_64/lib/gcc/arm-linux-androideabi/4.9.x/../../../../arm-linux-androideabi/lib/../lib -L/Users/Yu/Library/Android/sdk/ndk-bundle/platforms/android-18/arch-arm/usr/lib/../lib -L/Users/Yu/Library/Android/sdk/ndk-bundle/toolchains/arm-linux-androideabi-4.9/prebuilt/darwin-x86_64/lib/gcc/arm-linux-androideabi/4.9.x/../../../../arm-linux-androideabi/lib -L/Users/Yu/Library/Android/sdk/ndk-bundle/platforms/android-18/arch-arm/usr/lib --build-id --warn-shared-textrel --fatal-warnings --no-undefined -z noexecstack -z relro -z now --gc-sections -z nocopyreloc --build-id --warn-shared-textrel --fatal-warnings --no-undefined -z noexecstack -z relro -z now --gc-sections -z nocopyreloc CMakeFiles/cmTC_d9c83.dir/CMakeCCompilerABI.c.o -lgcc -ldl -lc -lgcc -ldl /Users/Yu/Library/Android/sdk/ndk-bundle/platforms/android-18/arch-arm/usr/lib/../lib/crtend_android.o]
    arg [/Users/Yu/Library/Android/sdk/ndk-bundle/toolchains/arm-linux-androideabi-4.9/prebuilt/darwin-x86_64/lib/gcc/arm-linux-androideabi/4.9.x/../../../../arm-linux-androideabi/bin/ld] ==> ignore
    arg [--sysroot=/Users/Yu/Library/Android/sdk/ndk-bundle/platforms/android-18/arch-arm] ==> ignore
    arg [-pie] ==> ignore
    arg [-X] ==> ignore
    arg [--eh-frame-hdr] ==> ignore
    arg [-m] ==> ignore
    arg [armelf_linux_eabi] ==> ignore
    arg [-dynamic-linker] ==> ignore
    arg [/system/bin/linker] ==> ignore
    arg [-o] ==> ignore
    arg [cmTC_d9c83] ==> ignore
    arg [/Users/Yu/Library/Android/sdk/ndk-bundle/platforms/android-18/arch-arm/usr/lib/../lib/crtbegin_dynamic.o] ==> ignore
    arg [-L/Users/Yu/Library/Android/sdk/ndk-bundle/toolchains/arm-linux-androideabi-4.9/prebuilt/darwin-x86_64/lib/gcc/arm-linux-androideabi/4.9.x] ==> dir [/Users/Yu/Library/Android/sdk/ndk-bundle/toolchains/arm-linux-androideabi-4.9/prebuilt/darwin-x86_64/lib/gcc/arm-linux-androideabi/4.9.x]
    arg [-L/Users/Yu/Library/Android/sdk/ndk-bundle/toolchains/arm-linux-androideabi-4.9/prebuilt/darwin-x86_64/lib/gcc/arm-linux-androideabi/4.9.x/../../../../arm-linux-androideabi/lib/../lib] ==> dir [/Users/Yu/Library/Android/sdk/ndk-bundle/toolchains/arm-linux-androideabi-4.9/prebuilt/darwin-x86_64/lib/gcc/arm-linux-androideabi/4.9.x/../../../../arm-linux-androideabi/lib/../lib]
    arg [-L/Users/Yu/Library/Android/sdk/ndk-bundle/platforms/android-18/arch-arm/usr/lib/../lib] ==> dir [/Users/Yu/Library/Android/sdk/ndk-bundle/platforms/android-18/arch-arm/usr/lib/../lib]
    arg [-L/Users/Yu/Library/Android/sdk/ndk-bundle/toolchains/arm-linux-androideabi-4.9/prebuilt/darwin-x86_64/lib/gcc/arm-linux-androideabi/4.9.x/../../../../arm-linux-androideabi/lib] ==> dir [/Users/Yu/Library/Android/sdk/ndk-bundle/toolchains/arm-linux-androideabi-4.9/prebuilt/darwin-x86_64/lib/gcc/arm-linux-androideabi/4.9.x/../../../../arm-linux-androideabi/lib]
    arg [-L/Users/Yu/Library/Android/sdk/ndk-bundle/platforms/android-18/arch-arm/usr/lib] ==> dir [/Users/Yu/Library/Android/sdk/ndk-bundle/platforms/android-18/arch-arm/usr/lib]
    arg [--build-id] ==> ignore
    arg [--warn-shared-textrel] ==> ignore
    arg [--fatal-warnings] ==> ignore
    arg [--no-undefined] ==> ignore
    arg [-znoexecstack] ==> ignore
    arg [-zrelro] ==> ignore
    arg [-znow] ==> ignore
    arg [--gc-sections] ==> ignore
    arg [-znocopyreloc] ==> ignore
    arg [--build-id] ==> ignore
    arg [--warn-shared-textrel] ==> ignore
    arg [--fatal-warnings] ==> ignore
    arg [--no-undefined] ==> ignore
    arg [-znoexecstack] ==> ignore
    arg [-zrelro] ==> ignore
    arg [-znow] ==> ignore
    arg [--gc-sections] ==> ignore
    arg [-znocopyreloc] ==> ignore
    arg [CMakeFiles/cmTC_d9c83.dir/CMakeCCompilerABI.c.o] ==> ignore
    arg [-lgcc] ==> lib [gcc]
    arg [-ldl] ==> lib [dl]
    arg [-lc] ==> lib [c]
    arg [-lgcc] ==> lib [gcc]
    arg [-ldl] ==> lib [dl]
    arg [/Users/Yu/Library/Android/sdk/ndk-bundle/platforms/android-18/arch-arm/usr/lib/../lib/crtend_android.o] ==> ignore
  remove lib [gcc]
  remove lib [gcc]
  collapse library dir [/Users/Yu/Library/Android/sdk/ndk-bundle/toolchains/arm-linux-androideabi-4.9/prebuilt/darwin-x86_64/lib/gcc/arm-linux-androideabi/4.9.x] ==> [/Users/Yu/Library/Android/sdk/ndk-bundle/toolchains/arm-linux-androideabi-4.9/prebuilt/darwin-x86_64/lib/gcc/arm-linux-androideabi/4.9.x]
  collapse library dir [/Users/Yu/Library/Android/sdk/ndk-bundle/toolchains/arm-linux-androideabi-4.9/prebuilt/darwin-x86_64/lib/gcc/arm-linux-androideabi/4.9.x/../../../../arm-linux-androideabi/lib/../lib] ==> [/Users/Yu/Library/Android/sdk/ndk-bundle/toolchains/arm-linux-androideabi-4.9/prebuilt/darwin-x86_64/arm-linux-androideabi/lib]
  collapse library dir [/Users/Yu/Library/Android/sdk/ndk-bundle/platforms/android-18/arch-arm/usr/lib/../lib] ==> [/Users/Yu/Library/Android/sdk/ndk-bundle/platforms/android-18/arch-arm/usr/lib]
  collapse library dir [/Users/Yu/Library/Android/sdk/ndk-bundle/toolchains/arm-linux-androideabi-4.9/prebuilt/darwin-x86_64/lib/gcc/arm-linux-androideabi/4.9.x/../../../../arm-linux-androideabi/lib] ==> [/Users/Yu/Library/Android/sdk/ndk-bundle/toolchains/arm-linux-androideabi-4.9/prebuilt/darwin-x86_64/arm-linux-androideabi/lib]
  collapse library dir [/Users/Yu/Library/Android/sdk/ndk-bundle/platforms/android-18/arch-arm/usr/lib] ==> [/Users/Yu/Library/Android/sdk/ndk-bundle/platforms/android-18/arch-arm/usr/lib]
  implicit libs: [dl;c;dl]
  implicit dirs: [/Users/Yu/Library/Android/sdk/ndk-bundle/toolchains/arm-linux-androideabi-4.9/prebuilt/darwin-x86_64/lib/gcc/arm-linux-androideabi/4.9.x;/Users/Yu/Library/Android/sdk/ndk-bundle/toolchains/arm-linux-androideabi-4.9/prebuilt/darwin-x86_64/arm-linux-androideabi/lib;/Users/Yu/Library/Android/sdk/ndk-bundle/platforms/android-18/arch-arm/usr/lib]
  implicit fwks: []


Determining if the CXX compiler works passed with the following output:
Change Dir: /Users/Yu/Documents/Development/Projects/gitlab/ShoppoMapSDK/PMPMapSDK/proj.android-studio/app/.externalNativeBuild/cmake/hkia_debug_release/armeabi/CMakeFiles/CMakeTmp

Run Build Command:"/Users/Yu/Library/Android/sdk/cmake/3.6.3155560/bin/ninja" "cmTC_1e982"
[1/2] Building CXX object CMakeFiles/cmTC_1e982.dir/testCXXCompiler.cxx.o
clang++: warning: -landroid: 'linker' input unused
clang++: warning: -lz: 'linker' input unused
[2/2] Linking CXX executable cmTC_1e982


Detecting CXX compiler ABI info compiled with the following output:
Change Dir: /Users/Yu/Documents/Development/Projects/gitlab/ShoppoMapSDK/PMPMapSDK/proj.android-studio/app/.externalNativeBuild/cmake/hkia_debug_release/armeabi/CMakeFiles/CMakeTmp

Run Build Command:"/Users/Yu/Library/Android/sdk/cmake/3.6.3155560/bin/ninja" "cmTC_6cea8"
[1/2] Building CXX object CMakeFiles/cmTC_6cea8.dir/CMakeCXXCompilerABI.cpp.o
clang++: warning: -landroid: 'linker' input unused
clang++: warning: -lz: 'linker' input unused
[2/2] Linking CXX executable cmTC_6cea8
Android clang version 3.8.256229  (based on LLVM 3.8.256229)
Target: armv5te-none-linux-android
Thread model: posix
InstalledDir: /Users/Yu/Library/Android/sdk/ndk-bundle/toolchains/llvm/prebuilt/darwin-x86_64/bin
Found candidate GCC installation: /Users/Yu/Library/Android/sdk/ndk-bundle/toolchains/arm-linux-androideabi-4.9/prebuilt/darwin-x86_64/lib/gcc/arm-linux-androideabi/4.9.x
Selected GCC installation: /Users/Yu/Library/Android/sdk/ndk-bundle/toolchains/arm-linux-androideabi-4.9/prebuilt/darwin-x86_64/lib/gcc/arm-linux-androideabi/4.9.x
Candidate multilib: .;@m32
Selected multilib: .;@m32
 "/Users/Yu/Library/Android/sdk/ndk-bundle/toolchains/arm-linux-androideabi-4.9/prebuilt/darwin-x86_64/lib/gcc/arm-linux-androideabi/4.9.x/../../../../arm-linux-androideabi/bin/ld" --sysroot=/Users/Yu/Library/Android/sdk/ndk-bundle/platforms/android-18/arch-arm -pie -X --eh-frame-hdr -m armelf_linux_eabi -dynamic-linker /system/bin/linker -o cmTC_6cea8 /Users/Yu/Library/Android/sdk/ndk-bundle/platforms/android-18/arch-arm/usr/lib/../lib/crtbegin_dynamic.o -L/Users/Yu/Library/Android/sdk/ndk-bundle/toolchains/arm-linux-androideabi-4.9/prebuilt/darwin-x86_64/lib/gcc/arm-linux-androideabi/4.9.x -L/Users/Yu/Library/Android/sdk/ndk-bundle/toolchains/arm-linux-androideabi-4.9/prebuilt/darwin-x86_64/lib/gcc/arm-linux-androideabi/4.9.x/../../../../arm-linux-androideabi/lib/../lib -L/Users/Yu/Library/Android/sdk/ndk-bundle/platforms/android-18/arch-arm/usr/lib/../lib -L/Users/Yu/Library/Android/sdk/ndk-bundle/toolchains/arm-linux-androideabi-4.9/prebuilt/darwin-x86_64/lib/gcc/arm-linux-androideabi/4.9.x/../../../../arm-linux-androideabi/lib -L/Users/Yu/Library/Android/sdk/ndk-bundle/platforms/android-18/arch-arm/usr/lib -landroid -lz --build-id --warn-shared-textrel --fatal-warnings --no-undefined -z noexecstack -z relro -z now --gc-sections -z nocopyreloc --build-id --warn-shared-textrel --fatal-warnings --no-undefined -z noexecstack -z relro -z now --gc-sections -z nocopyreloc CMakeFiles/cmTC_6cea8.dir/CMakeCXXCompilerABI.cpp.o -lstdc++ -lm -lgcc -lgcc -ldl -lc -lgcc -lgcc -ldl /Users/Yu/Library/Android/sdk/ndk-bundle/platforms/android-18/arch-arm/usr/lib/../lib/crtend_android.o


Parsed CXX implicit link information from above output:
  link line regex: [^( *|.*[/\])(arm-linux-androideabi-ld|([^/\]+-)?ld|collect2)[^/\]*( |$)]
  ignore line: [Change Dir: /Users/Yu/Documents/Development/Projects/gitlab/ShoppoMapSDK/PMPMapSDK/proj.android-studio/app/.externalNativeBuild/cmake/hkia_debug_release/armeabi/CMakeFiles/CMakeTmp]
  ignore line: []
  ignore line: [Run Build Command:"/Users/Yu/Library/Android/sdk/cmake/3.6.3155560/bin/ninja" "cmTC_6cea8"]
  ignore line: [[1/2] Building CXX object CMakeFiles/cmTC_6cea8.dir/CMakeCXXCompilerABI.cpp.o]
  ignore line: [clang++: warning: -landroid: 'linker' input unused]
  ignore line: [clang++: warning: -lz: 'linker' input unused]
  ignore line: [[2/2] Linking CXX executable cmTC_6cea8]
  ignore line: [Android clang version 3.8.256229  (based on LLVM 3.8.256229)]
  ignore line: [Target: armv5te-none-linux-android]
  ignore line: [Thread model: posix]
  ignore line: [InstalledDir: /Users/Yu/Library/Android/sdk/ndk-bundle/toolchains/llvm/prebuilt/darwin-x86_64/bin]
  ignore line: [Found candidate GCC installation: /Users/Yu/Library/Android/sdk/ndk-bundle/toolchains/arm-linux-androideabi-4.9/prebuilt/darwin-x86_64/lib/gcc/arm-linux-androideabi/4.9.x]
  ignore line: [Selected GCC installation: /Users/Yu/Library/Android/sdk/ndk-bundle/toolchains/arm-linux-androideabi-4.9/prebuilt/darwin-x86_64/lib/gcc/arm-linux-androideabi/4.9.x]
  ignore line: [Candidate multilib: .]
  ignore line: [@m32]
  ignore line: [Selected multilib: .]
  ignore line: [@m32]
  link line: [ "/Users/Yu/Library/Android/sdk/ndk-bundle/toolchains/arm-linux-androideabi-4.9/prebuilt/darwin-x86_64/lib/gcc/arm-linux-androideabi/4.9.x/../../../../arm-linux-androideabi/bin/ld" --sysroot=/Users/Yu/Library/Android/sdk/ndk-bundle/platforms/android-18/arch-arm -pie -X --eh-frame-hdr -m armelf_linux_eabi -dynamic-linker /system/bin/linker -o cmTC_6cea8 /Users/Yu/Library/Android/sdk/ndk-bundle/platforms/android-18/arch-arm/usr/lib/../lib/crtbegin_dynamic.o -L/Users/Yu/Library/Android/sdk/ndk-bundle/toolchains/arm-linux-androideabi-4.9/prebuilt/darwin-x86_64/lib/gcc/arm-linux-androideabi/4.9.x -L/Users/Yu/Library/Android/sdk/ndk-bundle/toolchains/arm-linux-androideabi-4.9/prebuilt/darwin-x86_64/lib/gcc/arm-linux-androideabi/4.9.x/../../../../arm-linux-androideabi/lib/../lib -L/Users/Yu/Library/Android/sdk/ndk-bundle/platforms/android-18/arch-arm/usr/lib/../lib -L/Users/Yu/Library/Android/sdk/ndk-bundle/toolchains/arm-linux-androideabi-4.9/prebuilt/darwin-x86_64/lib/gcc/arm-linux-androideabi/4.9.x/../../../../arm-linux-androideabi/lib -L/Users/Yu/Library/Android/sdk/ndk-bundle/platforms/android-18/arch-arm/usr/lib -landroid -lz --build-id --warn-shared-textrel --fatal-warnings --no-undefined -z noexecstack -z relro -z now --gc-sections -z nocopyreloc --build-id --warn-shared-textrel --fatal-warnings --no-undefined -z noexecstack -z relro -z now --gc-sections -z nocopyreloc CMakeFiles/cmTC_6cea8.dir/CMakeCXXCompilerABI.cpp.o -lstdc++ -lm -lgcc -lgcc -ldl -lc -lgcc -lgcc -ldl /Users/Yu/Library/Android/sdk/ndk-bundle/platforms/android-18/arch-arm/usr/lib/../lib/crtend_android.o]
    arg [/Users/Yu/Library/Android/sdk/ndk-bundle/toolchains/arm-linux-androideabi-4.9/prebuilt/darwin-x86_64/lib/gcc/arm-linux-androideabi/4.9.x/../../../../arm-linux-androideabi/bin/ld] ==> ignore
    arg [--sysroot=/Users/Yu/Library/Android/sdk/ndk-bundle/platforms/android-18/arch-arm] ==> ignore
    arg [-pie] ==> ignore
    arg [-X] ==> ignore
    arg [--eh-frame-hdr] ==> ignore
    arg [-m] ==> ignore
    arg [armelf_linux_eabi] ==> ignore
    arg [-dynamic-linker] ==> ignore
    arg [/system/bin/linker] ==> ignore
    arg [-o] ==> ignore
    arg [cmTC_6cea8] ==> ignore
    arg [/Users/Yu/Library/Android/sdk/ndk-bundle/platforms/android-18/arch-arm/usr/lib/../lib/crtbegin_dynamic.o] ==> ignore
    arg [-L/Users/Yu/Library/Android/sdk/ndk-bundle/toolchains/arm-linux-androideabi-4.9/prebuilt/darwin-x86_64/lib/gcc/arm-linux-androideabi/4.9.x] ==> dir [/Users/Yu/Library/Android/sdk/ndk-bundle/toolchains/arm-linux-androideabi-4.9/prebuilt/darwin-x86_64/lib/gcc/arm-linux-androideabi/4.9.x]
    arg [-L/Users/Yu/Library/Android/sdk/ndk-bundle/toolchains/arm-linux-androideabi-4.9/prebuilt/darwin-x86_64/lib/gcc/arm-linux-androideabi/4.9.x/../../../../arm-linux-androideabi/lib/../lib] ==> dir [/Users/Yu/Library/Android/sdk/ndk-bundle/toolchains/arm-linux-androideabi-4.9/prebuilt/darwin-x86_64/lib/gcc/arm-linux-androideabi/4.9.x/../../../../arm-linux-androideabi/lib/../lib]
    arg [-L/Users/Yu/Library/Android/sdk/ndk-bundle/platforms/android-18/arch-arm/usr/lib/../lib] ==> dir [/Users/Yu/Library/Android/sdk/ndk-bundle/platforms/android-18/arch-arm/usr/lib/../lib]
    arg [-L/Users/Yu/Library/Android/sdk/ndk-bundle/toolchains/arm-linux-androideabi-4.9/prebuilt/darwin-x86_64/lib/gcc/arm-linux-androideabi/4.9.x/../../../../arm-linux-androideabi/lib] ==> dir [/Users/Yu/Library/Android/sdk/ndk-bundle/toolchains/arm-linux-androideabi-4.9/prebuilt/darwin-x86_64/lib/gcc/arm-linux-androideabi/4.9.x/../../../../arm-linux-androideabi/lib]
    arg [-L/Users/Yu/Library/Android/sdk/ndk-bundle/platforms/android-18/arch-arm/usr/lib] ==> dir [/Users/Yu/Library/Android/sdk/ndk-bundle/platforms/android-18/arch-arm/usr/lib]
    arg [-landroid] ==> lib [android]
    arg [-lz] ==> lib [z]
    arg [--build-id] ==> ignore
    arg [--warn-shared-textrel] ==> ignore
    arg [--fatal-warnings] ==> ignore
    arg [--no-undefined] ==> ignore
    arg [-znoexecstack] ==> ignore
    arg [-zrelro] ==> ignore
    arg [-znow] ==> ignore
    arg [--gc-sections] ==> ignore
    arg [-znocopyreloc] ==> ignore
    arg [--build-id] ==> ignore
    arg [--warn-shared-textrel] ==> ignore
    arg [--fatal-warnings] ==> ignore
    arg [--no-undefined] ==> ignore
    arg [-znoexecstack] ==> ignore
    arg [-zrelro] ==> ignore
    arg [-znow] ==> ignore
    arg [--gc-sections] ==> ignore
    arg [-znocopyreloc] ==> ignore
    arg [CMakeFiles/cmTC_6cea8.dir/CMakeCXXCompilerABI.cpp.o] ==> ignore
    arg [-lstdc++] ==> lib [stdc++]
    arg [-lm] ==> lib [m]
    arg [-lgcc] ==> lib [gcc]
    arg [-lgcc] ==> lib [gcc]
    arg [-ldl] ==> lib [dl]
    arg [-lc] ==> lib [c]
    arg [-lgcc] ==> lib [gcc]
    arg [-lgcc] ==> lib [gcc]
    arg [-ldl] ==> lib [dl]
    arg [/Users/Yu/Library/Android/sdk/ndk-bundle/platforms/android-18/arch-arm/usr/lib/../lib/crtend_android.o] ==> ignore
  remove lib [gcc]
  remove lib [gcc]
  remove lib [gcc]
  remove lib [gcc]
  collapse library dir [/Users/Yu/Library/Android/sdk/ndk-bundle/toolchains/arm-linux-androideabi-4.9/prebuilt/darwin-x86_64/lib/gcc/arm-linux-androideabi/4.9.x] ==> [/Users/Yu/Library/Android/sdk/ndk-bundle/toolchains/arm-linux-androideabi-4.9/prebuilt/darwin-x86_64/lib/gcc/arm-linux-androideabi/4.9.x]
  collapse library dir [/Users/Yu/Library/Android/sdk/ndk-bundle/toolchains/arm-linux-androideabi-4.9/prebuilt/darwin-x86_64/lib/gcc/arm-linux-androideabi/4.9.x/../../../../arm-linux-androideabi/lib/../lib] ==> [/Users/Yu/Library/Android/sdk/ndk-bundle/toolchains/arm-linux-androideabi-4.9/prebuilt/darwin-x86_64/arm-linux-androideabi/lib]
  collapse library dir [/Users/Yu/Library/Android/sdk/ndk-bundle/platforms/android-18/arch-arm/usr/lib/../lib] ==> [/Users/Yu/Library/Android/sdk/ndk-bundle/platforms/android-18/arch-arm/usr/lib]
  collapse library dir [/Users/Yu/Library/Android/sdk/ndk-bundle/toolchains/arm-linux-androideabi-4.9/prebuilt/darwin-x86_64/lib/gcc/arm-linux-androideabi/4.9.x/../../../../arm-linux-androideabi/lib] ==> [/Users/Yu/Library/Android/sdk/ndk-bundle/toolchains/arm-linux-androideabi-4.9/prebuilt/darwin-x86_64/arm-linux-androideabi/lib]
  collapse library dir [/Users/Yu/Library/Android/sdk/ndk-bundle/platforms/android-18/arch-arm/usr/lib] ==> [/Users/Yu/Library/Android/sdk/ndk-bundle/platforms/android-18/arch-arm/usr/lib]
  implicit libs: [android;z;stdc++;m;dl;c;dl]
  implicit dirs: [/Users/Yu/Library/Android/sdk/ndk-bundle/toolchains/arm-linux-androideabi-4.9/prebuilt/darwin-x86_64/lib/gcc/arm-linux-androideabi/4.9.x;/Users/Yu/Library/Android/sdk/ndk-bundle/toolchains/arm-linux-androideabi-4.9/prebuilt/darwin-x86_64/arm-linux-androideabi/lib;/Users/Yu/Library/Android/sdk/ndk-bundle/platforms/android-18/arch-arm/usr/lib]
  implicit fwks: []


