
{
	"buildFiles" : 
	[
		"/Users/andrew/Documents/workspace/PMPMap/PMPMapSDK/PMPMapSDK/proj.android-studio/app/CMakeLists.txt"
	],
	"cFileExtensions" : [ "c" ],
	"cleanCommands" : 
	[
		"/Users/andrew/Library/Android/sdk/cmake/3.6.3155560/bin/cmake --build /Users/andrew/Documents/workspace/PMPMap/PMPMapSDK/PMPMapSDK/proj.android-studio/app/.externalNativeBuild/cmake/swire_release/x86 --target clean"
	],
	"libraries" : 
	{
		"PMPBeaconSecure-Release-x86" : 
		{
			"abi" : "x86",
			"artifactName" : "PMPBeaconSecure",
			"buildCommand" : "/Users/andrew/Library/Android/sdk/cmake/3.6.3155560/bin/cmake --build /Users/andrew/Documents/workspace/PMPMap/PMPMapSDK/PMPMapSDK/proj.android-studio/app/.externalNativeBuild/cmake/swire_release/x86 --target PMPBeaconSecure",
			"buildType" : "release",
			"files" : 
			[
				
				{
					"flags" : "  -target i686-none-linux-android -gcc-toolchain /Users/andrew/Library/Android/sdk/ndk-bundle/toolchains/x86-4.9/prebuilt/darwin-x86_64 --sysroot=/Users/andrew/Library/Android/sdk/ndk-bundle/platforms/android-18/arch-x86 -DPMPBeaconSecure_EXPORTS -I../../../../src/main/cpp/include  -g -DANDROID -ffunction-sections -funwind-tables -fstack-protector-strong -no-canonical-prefixes -Wa,--noexecstack -Wformat -Werror=format-security -g -DANDROID -ffunction-sections -funwind-tables -fstack-protector-strong -no-canonical-prefixes -Wa,--noexecstack -Wformat -Werror=format-security  -O2 -DNDEBUG -O2 -DNDEBUG  -fPIC      -c ",
					"src" : "/Users/andrew/Documents/workspace/PMPMap/PMPMapSDK/PMPMapSDK/proj.android-studio/app/src/main/jni/pmpbeacon.c",
					"workingDirectory" : "/Users/andrew/Documents/workspace/PMPMap/PMPMapSDK/PMPMapSDK/proj.android-studio/app/.externalNativeBuild/cmake/swire_release/x86"
				}
			],
			"output" : "/Users/andrew/Documents/workspace/PMPMap/PMPMapSDK/PMPMapSDK/proj.android-studio/app/.externalNativeBuild/cmake/swire_release/obj/x86/libPMPBeaconSecure.so",
			"toolchain" : "4360017167164639656"
		},
		"cocos2d-Release-x86" : 
		{
			"abi" : "x86",
			"artifactName" : "cocos2d",
			"buildCommand" : "/Users/andrew/Library/Android/sdk/cmake/3.6.3155560/bin/cmake --build /Users/andrew/Documents/workspace/PMPMap/PMPMapSDK/PMPMapSDK/proj.android-studio/app/.externalNativeBuild/cmake/swire_release/x86 --target cocos2d",
			"buildType" : "release",
			"files" : 
			[
				
				{
					"flags" : "  -target i686-none-linux-android -gcc-toolchain /Users/andrew/Library/Android/sdk/ndk-bundle/toolchains/x86-4.9/prebuilt/darwin-x86_64 --sysroot=/Users/andrew/Library/Android/sdk/ndk-bundle/platforms/android-18/arch-x86 -Dcocos2d_EXPORTS -I../../../../src/main/cpp/include  -g -DANDROID -ffunction-sections -funwind-tables -fstack-protector-strong -no-canonical-prefixes -Wa,--noexecstack -Wformat -Werror=format-security -g -DANDROID -ffunction-sections -funwind-tables -fstack-protector-strong -no-canonical-prefixes -Wa,--noexecstack -Wformat -Werror=format-security  -O2 -DNDEBUG -O2 -DNDEBUG  -fPIC      -c ",
					"src" : "/Users/andrew/Documents/workspace/PMPMap/PMPMapSDK/PMPMapSDK/proj.android-studio/app/src/main/jni/pmpbeacon.c",
					"workingDirectory" : "/Users/andrew/Documents/workspace/PMPMap/PMPMapSDK/PMPMapSDK/proj.android-studio/app/.externalNativeBuild/cmake/swire_release/x86"
				}
			],
			"output" : "/Users/andrew/Documents/workspace/PMPMap/PMPMapSDK/PMPMapSDK/proj.android-studio/app/.externalNativeBuild/cmake/swire_release/obj/x86/libcocos2d.so",
			"toolchain" : "4360017167164639656"
		}
	},
	"toolchains" : 
	{
		"4360017167164639656" : 
		{
			"cCompilerExecutable" : "/Users/andrew/Library/Android/sdk/ndk-bundle/toolchains/llvm/prebuilt/darwin-x86_64/bin/clang",
			"cppCompilerExecutable" : "/Users/andrew/Library/Android/sdk/ndk-bundle/toolchains/llvm/prebuilt/darwin-x86_64/bin/clang++"
		}
	}
}
