
{
	"buildFiles" : 
	[
		"/Users/Yu/Documents/Development/Projects/gitlab/ShoppoMapSDK/PMPMapSDK/proj.android-studio/app/CMakeLists.txt"
	],
	"cleanCommands" : 
	[
		"/Users/Yu/Library/Android/sdk/cmake/3.6.3155560/bin/cmake --build /Users/Yu/Documents/Development/Projects/gitlab/ShoppoMapSDK/PMPMapSDK/proj.android-studio/app/.externalNativeBuild/cmake/hkia_qa_release/armeabi --target clean"
	],
	"cppFileExtensions" : [ "cpp" ],
	"libraries" : 
	{
		"PMPNativeLocationMgr-Release-armeabi" : 
		{
			"abi" : "armeabi",
			"artifactName" : "PMPNativeLocationMgr",
			"buildCommand" : "/Users/Yu/Library/Android/sdk/cmake/3.6.3155560/bin/cmake --build /Users/Yu/Documents/Development/Projects/gitlab/ShoppoMapSDK/PMPMapSDK/proj.android-studio/app/.externalNativeBuild/cmake/hkia_qa_release/armeabi --target PMPNativeLocationMgr",
			"buildType" : "release",
			"files" : 
			[
				
				{
					"flags" : "  -target armv5te-none-linux-androideabi -gcc-toolchain /Users/Yu/Library/Android/sdk/ndk-bundle/toolchains/arm-linux-androideabi-4.9/prebuilt/darwin-x86_64 --sysroot=/Users/Yu/Library/Android/sdk/ndk-bundle/platforms/android-18/arch-arm  -DPMPNativeLocationMgr_EXPORTS -I../../../../src/main/cpp/include -isystem /Users/Yu/Library/Android/sdk/ndk-bundle/sources/cxx-stl/gnu-libstdc++/4.9/include -isystem /Users/Yu/Library/Android/sdk/ndk-bundle/sources/cxx-stl/gnu-libstdc++/4.9/libs/armeabi/include -isystem /Users/Yu/Library/Android/sdk/ndk-bundle/sources/cxx-stl/gnu-libstdc++/4.9/include/backward  -g -DANDROID -ffunction-sections -funwind-tables -fstack-protector-strong -no-canonical-prefixes -march=armv5te -mtune=xscale -msoft-float -fno-integrated-as -mthumb -Wa,--noexecstack -Wformat -Werror=format-security -fno-exceptions -fno-rtti -g -DANDROID -ffunction-sections -funwind-tables -fstack-protector-strong -no-canonical-prefixes -march=armv5te -mtune=xscale -msoft-float -fno-integrated-as -mthumb -Wa,--noexecstack -Wformat -Werror=format-security -fno-exceptions -fno-rtti -frtti -fexceptions -landroid -lz -std=gnu++11 -Os -DNDEBUG -Os -DNDEBUG  -fPIC    -c ",
					"src" : "/Users/Yu/Documents/Development/Projects/gitlab/ShoppoMapSDK/PMPMapSDK/proj.android-studio/app/src/main/cpp/pmplocationmanager.cpp",
					"workingDirectory" : "/Users/Yu/Documents/Development/Projects/gitlab/ShoppoMapSDK/PMPMapSDK/proj.android-studio/app/.externalNativeBuild/cmake/hkia_qa_release/armeabi"
				},
				
				{
					"flags" : "  -target armv5te-none-linux-androideabi -gcc-toolchain /Users/Yu/Library/Android/sdk/ndk-bundle/toolchains/arm-linux-androideabi-4.9/prebuilt/darwin-x86_64 --sysroot=/Users/Yu/Library/Android/sdk/ndk-bundle/platforms/android-18/arch-arm  -DPMPNativeLocationMgr_EXPORTS -I../../../../src/main/cpp/include -isystem /Users/Yu/Library/Android/sdk/ndk-bundle/sources/cxx-stl/gnu-libstdc++/4.9/include -isystem /Users/Yu/Library/Android/sdk/ndk-bundle/sources/cxx-stl/gnu-libstdc++/4.9/libs/armeabi/include -isystem /Users/Yu/Library/Android/sdk/ndk-bundle/sources/cxx-stl/gnu-libstdc++/4.9/include/backward  -g -DANDROID -ffunction-sections -funwind-tables -fstack-protector-strong -no-canonical-prefixes -march=armv5te -mtune=xscale -msoft-float -fno-integrated-as -mthumb -Wa,--noexecstack -Wformat -Werror=format-security -fno-exceptions -fno-rtti -g -DANDROID -ffunction-sections -funwind-tables -fstack-protector-strong -no-canonical-prefixes -march=armv5te -mtune=xscale -msoft-float -fno-integrated-as -mthumb -Wa,--noexecstack -Wformat -Werror=format-security -fno-exceptions -fno-rtti -frtti -fexceptions -landroid -lz -std=gnu++11 -Os -DNDEBUG -Os -DNDEBUG  -fPIC    -c ",
					"src" : "/Users/Yu/Documents/Development/Projects/gitlab/ShoppoMapSDK/PMPMapSDK/proj.android-studio/app/src/main/cpp/CppBeacon.cpp",
					"workingDirectory" : "/Users/Yu/Documents/Development/Projects/gitlab/ShoppoMapSDK/PMPMapSDK/proj.android-studio/app/.externalNativeBuild/cmake/hkia_qa_release/armeabi"
				},
				
				{
					"flags" : "  -target armv5te-none-linux-androideabi -gcc-toolchain /Users/Yu/Library/Android/sdk/ndk-bundle/toolchains/arm-linux-androideabi-4.9/prebuilt/darwin-x86_64 --sysroot=/Users/Yu/Library/Android/sdk/ndk-bundle/platforms/android-18/arch-arm  -DPMPNativeLocationMgr_EXPORTS -I../../../../src/main/cpp/include -isystem /Users/Yu/Library/Android/sdk/ndk-bundle/sources/cxx-stl/gnu-libstdc++/4.9/include -isystem /Users/Yu/Library/Android/sdk/ndk-bundle/sources/cxx-stl/gnu-libstdc++/4.9/libs/armeabi/include -isystem /Users/Yu/Library/Android/sdk/ndk-bundle/sources/cxx-stl/gnu-libstdc++/4.9/include/backward  -g -DANDROID -ffunction-sections -funwind-tables -fstack-protector-strong -no-canonical-prefixes -march=armv5te -mtune=xscale -msoft-float -fno-integrated-as -mthumb -Wa,--noexecstack -Wformat -Werror=format-security -fno-exceptions -fno-rtti -g -DANDROID -ffunction-sections -funwind-tables -fstack-protector-strong -no-canonical-prefixes -march=armv5te -mtune=xscale -msoft-float -fno-integrated-as -mthumb -Wa,--noexecstack -Wformat -Werror=format-security -fno-exceptions -fno-rtti -frtti -fexceptions -landroid -lz -std=gnu++11 -Os -DNDEBUG -Os -DNDEBUG  -fPIC    -c ",
					"src" : "/Users/Yu/Documents/Development/Projects/gitlab/ShoppoMapSDK/PMPMapSDK/proj.android-studio/app/src/main/cpp/CppLocation.cpp",
					"workingDirectory" : "/Users/Yu/Documents/Development/Projects/gitlab/ShoppoMapSDK/PMPMapSDK/proj.android-studio/app/.externalNativeBuild/cmake/hkia_qa_release/armeabi"
				},
				
				{
					"flags" : "  -target armv5te-none-linux-androideabi -gcc-toolchain /Users/Yu/Library/Android/sdk/ndk-bundle/toolchains/arm-linux-androideabi-4.9/prebuilt/darwin-x86_64 --sysroot=/Users/Yu/Library/Android/sdk/ndk-bundle/platforms/android-18/arch-arm  -DPMPNativeLocationMgr_EXPORTS -I../../../../src/main/cpp/include -isystem /Users/Yu/Library/Android/sdk/ndk-bundle/sources/cxx-stl/gnu-libstdc++/4.9/include -isystem /Users/Yu/Library/Android/sdk/ndk-bundle/sources/cxx-stl/gnu-libstdc++/4.9/libs/armeabi/include -isystem /Users/Yu/Library/Android/sdk/ndk-bundle/sources/cxx-stl/gnu-libstdc++/4.9/include/backward  -g -DANDROID -ffunction-sections -funwind-tables -fstack-protector-strong -no-canonical-prefixes -march=armv5te -mtune=xscale -msoft-float -fno-integrated-as -mthumb -Wa,--noexecstack -Wformat -Werror=format-security -fno-exceptions -fno-rtti -g -DANDROID -ffunction-sections -funwind-tables -fstack-protector-strong -no-canonical-prefixes -march=armv5te -mtune=xscale -msoft-float -fno-integrated-as -mthumb -Wa,--noexecstack -Wformat -Werror=format-security -fno-exceptions -fno-rtti -frtti -fexceptions -landroid -lz -std=gnu++11 -Os -DNDEBUG -Os -DNDEBUG  -fPIC    -c ",
					"src" : "/Users/Yu/Documents/Development/Projects/gitlab/ShoppoMapSDK/PMPMapSDK/proj.android-studio/app/src/main/cpp/CppLocationManager.cpp",
					"workingDirectory" : "/Users/Yu/Documents/Development/Projects/gitlab/ShoppoMapSDK/PMPMapSDK/proj.android-studio/app/.externalNativeBuild/cmake/hkia_qa_release/armeabi"
				},
				
				{
					"flags" : "  -target armv5te-none-linux-androideabi -gcc-toolchain /Users/Yu/Library/Android/sdk/ndk-bundle/toolchains/arm-linux-androideabi-4.9/prebuilt/darwin-x86_64 --sysroot=/Users/Yu/Library/Android/sdk/ndk-bundle/platforms/android-18/arch-arm  -DPMPNativeLocationMgr_EXPORTS -I../../../../src/main/cpp/include -isystem /Users/Yu/Library/Android/sdk/ndk-bundle/sources/cxx-stl/gnu-libstdc++/4.9/include -isystem /Users/Yu/Library/Android/sdk/ndk-bundle/sources/cxx-stl/gnu-libstdc++/4.9/libs/armeabi/include -isystem /Users/Yu/Library/Android/sdk/ndk-bundle/sources/cxx-stl/gnu-libstdc++/4.9/include/backward  -g -DANDROID -ffunction-sections -funwind-tables -fstack-protector-strong -no-canonical-prefixes -march=armv5te -mtune=xscale -msoft-float -fno-integrated-as -mthumb -Wa,--noexecstack -Wformat -Werror=format-security -fno-exceptions -fno-rtti -g -DANDROID -ffunction-sections -funwind-tables -fstack-protector-strong -no-canonical-prefixes -march=armv5te -mtune=xscale -msoft-float -fno-integrated-as -mthumb -Wa,--noexecstack -Wformat -Werror=format-security -fno-exceptions -fno-rtti -frtti -fexceptions -landroid -lz -std=gnu++11 -Os -DNDEBUG -Os -DNDEBUG  -fPIC    -c ",
					"src" : "/Users/Yu/Documents/Development/Projects/gitlab/ShoppoMapSDK/PMPMapSDK/proj.android-studio/app/src/main/cpp/CppPoint.cpp",
					"workingDirectory" : "/Users/Yu/Documents/Development/Projects/gitlab/ShoppoMapSDK/PMPMapSDK/proj.android-studio/app/.externalNativeBuild/cmake/hkia_qa_release/armeabi"
				},
				
				{
					"flags" : "  -target armv5te-none-linux-androideabi -gcc-toolchain /Users/Yu/Library/Android/sdk/ndk-bundle/toolchains/arm-linux-androideabi-4.9/prebuilt/darwin-x86_64 --sysroot=/Users/Yu/Library/Android/sdk/ndk-bundle/platforms/android-18/arch-arm  -DPMPNativeLocationMgr_EXPORTS -I../../../../src/main/cpp/include -isystem /Users/Yu/Library/Android/sdk/ndk-bundle/sources/cxx-stl/gnu-libstdc++/4.9/include -isystem /Users/Yu/Library/Android/sdk/ndk-bundle/sources/cxx-stl/gnu-libstdc++/4.9/libs/armeabi/include -isystem /Users/Yu/Library/Android/sdk/ndk-bundle/sources/cxx-stl/gnu-libstdc++/4.9/include/backward  -g -DANDROID -ffunction-sections -funwind-tables -fstack-protector-strong -no-canonical-prefixes -march=armv5te -mtune=xscale -msoft-float -fno-integrated-as -mthumb -Wa,--noexecstack -Wformat -Werror=format-security -fno-exceptions -fno-rtti -g -DANDROID -ffunction-sections -funwind-tables -fstack-protector-strong -no-canonical-prefixes -march=armv5te -mtune=xscale -msoft-float -fno-integrated-as -mthumb -Wa,--noexecstack -Wformat -Werror=format-security -fno-exceptions -fno-rtti -frtti -fexceptions -landroid -lz -std=gnu++11 -Os -DNDEBUG -Os -DNDEBUG  -fPIC    -c ",
					"src" : "/Users/Yu/Documents/Development/Projects/gitlab/ShoppoMapSDK/PMPMapSDK/proj.android-studio/app/src/main/cpp/thread_pool_timer_exception.cpp",
					"workingDirectory" : "/Users/Yu/Documents/Development/Projects/gitlab/ShoppoMapSDK/PMPMapSDK/proj.android-studio/app/.externalNativeBuild/cmake/hkia_qa_release/armeabi"
				},
				
				{
					"flags" : "  -target armv5te-none-linux-androideabi -gcc-toolchain /Users/Yu/Library/Android/sdk/ndk-bundle/toolchains/arm-linux-androideabi-4.9/prebuilt/darwin-x86_64 --sysroot=/Users/Yu/Library/Android/sdk/ndk-bundle/platforms/android-18/arch-arm  -DPMPNativeLocationMgr_EXPORTS -I../../../../src/main/cpp/include -isystem /Users/Yu/Library/Android/sdk/ndk-bundle/sources/cxx-stl/gnu-libstdc++/4.9/include -isystem /Users/Yu/Library/Android/sdk/ndk-bundle/sources/cxx-stl/gnu-libstdc++/4.9/libs/armeabi/include -isystem /Users/Yu/Library/Android/sdk/ndk-bundle/sources/cxx-stl/gnu-libstdc++/4.9/include/backward  -g -DANDROID -ffunction-sections -funwind-tables -fstack-protector-strong -no-canonical-prefixes -march=armv5te -mtune=xscale -msoft-float -fno-integrated-as -mthumb -Wa,--noexecstack -Wformat -Werror=format-security -fno-exceptions -fno-rtti -g -DANDROID -ffunction-sections -funwind-tables -fstack-protector-strong -no-canonical-prefixes -march=armv5te -mtune=xscale -msoft-float -fno-integrated-as -mthumb -Wa,--noexecstack -Wformat -Werror=format-security -fno-exceptions -fno-rtti -frtti -fexceptions -landroid -lz -std=gnu++11 -Os -DNDEBUG -Os -DNDEBUG  -fPIC    -c ",
					"src" : "/Users/Yu/Documents/Development/Projects/gitlab/ShoppoMapSDK/PMPMapSDK/proj.android-studio/app/src/main/cpp/timer_impl.cpp",
					"workingDirectory" : "/Users/Yu/Documents/Development/Projects/gitlab/ShoppoMapSDK/PMPMapSDK/proj.android-studio/app/.externalNativeBuild/cmake/hkia_qa_release/armeabi"
				},
				
				{
					"flags" : "  -target armv5te-none-linux-androideabi -gcc-toolchain /Users/Yu/Library/Android/sdk/ndk-bundle/toolchains/arm-linux-androideabi-4.9/prebuilt/darwin-x86_64 --sysroot=/Users/Yu/Library/Android/sdk/ndk-bundle/platforms/android-18/arch-arm  -DPMPNativeLocationMgr_EXPORTS -I../../../../src/main/cpp/include -isystem /Users/Yu/Library/Android/sdk/ndk-bundle/sources/cxx-stl/gnu-libstdc++/4.9/include -isystem /Users/Yu/Library/Android/sdk/ndk-bundle/sources/cxx-stl/gnu-libstdc++/4.9/libs/armeabi/include -isystem /Users/Yu/Library/Android/sdk/ndk-bundle/sources/cxx-stl/gnu-libstdc++/4.9/include/backward  -g -DANDROID -ffunction-sections -funwind-tables -fstack-protector-strong -no-canonical-prefixes -march=armv5te -mtune=xscale -msoft-float -fno-integrated-as -mthumb -Wa,--noexecstack -Wformat -Werror=format-security -fno-exceptions -fno-rtti -g -DANDROID -ffunction-sections -funwind-tables -fstack-protector-strong -no-canonical-prefixes -march=armv5te -mtune=xscale -msoft-float -fno-integrated-as -mthumb -Wa,--noexecstack -Wformat -Werror=format-security -fno-exceptions -fno-rtti -frtti -fexceptions -landroid -lz -std=gnu++11 -Os -DNDEBUG -Os -DNDEBUG  -fPIC    -c ",
					"src" : "/Users/Yu/Documents/Development/Projects/gitlab/ShoppoMapSDK/PMPMapSDK/proj.android-studio/app/src/main/cpp/timer_run_loop.cpp",
					"workingDirectory" : "/Users/Yu/Documents/Development/Projects/gitlab/ShoppoMapSDK/PMPMapSDK/proj.android-studio/app/.externalNativeBuild/cmake/hkia_qa_release/armeabi"
				},
				
				{
					"flags" : "  -target armv5te-none-linux-androideabi -gcc-toolchain /Users/Yu/Library/Android/sdk/ndk-bundle/toolchains/arm-linux-androideabi-4.9/prebuilt/darwin-x86_64 --sysroot=/Users/Yu/Library/Android/sdk/ndk-bundle/platforms/android-18/arch-arm  -DPMPNativeLocationMgr_EXPORTS -I../../../../src/main/cpp/include -isystem /Users/Yu/Library/Android/sdk/ndk-bundle/sources/cxx-stl/gnu-libstdc++/4.9/include -isystem /Users/Yu/Library/Android/sdk/ndk-bundle/sources/cxx-stl/gnu-libstdc++/4.9/libs/armeabi/include -isystem /Users/Yu/Library/Android/sdk/ndk-bundle/sources/cxx-stl/gnu-libstdc++/4.9/include/backward  -g -DANDROID -ffunction-sections -funwind-tables -fstack-protector-strong -no-canonical-prefixes -march=armv5te -mtune=xscale -msoft-float -fno-integrated-as -mthumb -Wa,--noexecstack -Wformat -Werror=format-security -fno-exceptions -fno-rtti -g -DANDROID -ffunction-sections -funwind-tables -fstack-protector-strong -no-canonical-prefixes -march=armv5te -mtune=xscale -msoft-float -fno-integrated-as -mthumb -Wa,--noexecstack -Wformat -Werror=format-security -fno-exceptions -fno-rtti -frtti -fexceptions -landroid -lz -std=gnu++11 -Os -DNDEBUG -Os -DNDEBUG  -fPIC    -c ",
					"src" : "/Users/Yu/Documents/Development/Projects/gitlab/ShoppoMapSDK/PMPMapSDK/proj.android-studio/app/src/main/cpp/timer.cpp",
					"workingDirectory" : "/Users/Yu/Documents/Development/Projects/gitlab/ShoppoMapSDK/PMPMapSDK/proj.android-studio/app/.externalNativeBuild/cmake/hkia_qa_release/armeabi"
				}
			],
			"output" : "/Users/Yu/Documents/Development/Projects/gitlab/ShoppoMapSDK/PMPMapSDK/proj.android-studio/app/build/intermediates/cmake/hkia_qa_release/obj/armeabi/libPMPNativeLocationMgr.so",
			"toolchain" : "586154033759404496"
		}
	},
	"toolchains" : 
	{
		"586154033759404496" : 
		{
			"cCompilerExecutable" : "/Users/Yu/Library/Android/sdk/ndk-bundle/toolchains/llvm/prebuilt/darwin-x86_64/bin/clang",
			"cppCompilerExecutable" : "/Users/Yu/Library/Android/sdk/ndk-bundle/toolchains/llvm/prebuilt/darwin-x86_64/bin/clang++"
		}
	}
}
